[gd_scene load_steps=6 format=2]

[ext_resource path="res://Scenes/Player.tscn" type="PackedScene" id=1]
[ext_resource path="res://snow.tres" type="TileSet" id=2]
[ext_resource path="res://Assets/Familiar Looking Rocket.png" type="Texture" id=3]
[ext_resource path="res://Scenes/area trigger.tscn" type="PackedScene" id=4]
[ext_resource path="res://Scenes/area lose.tscn" type="PackedScene" id=5]

[node name="Level 1" type="Node2D"]

[node name="Player" parent="." instance=ExtResource( 1 )]
position = Vector2( 144.475, 47.5724 )
speed = 300

[node name="Camera2D" type="Camera2D" parent="Player"]
current = true

[node name="TileMap" type="TileMap" parent="."]
scale = Vector2( 0.5, 0.5 )
tile_set = ExtResource( 2 )
cell_size = Vector2( 128, 128 )
format = 1
tile_data = PoolIntArray( 196607, 0, 65543, 131072, 0, 65541, 131076, 0, 4, 131077, 0, 5, 131079, 0, 65536, 131083, 0, 4, 131084, 0, 5, 262143, 0, 2, 196608, 0, 8, 196609, 0, 65544, 196610, 0, 7, 196617, 0, 65537, 196623, 0, 6, 262151, 0, 65537, 262158, 0, 6, 262159, 0, 9, 327685, 0, 65537, 327693, 0, 6, 327694, 0, 9, 327695, 0, 2, 393218, 0, 65543, 393219, 0, 65541, 393224, 0, 65537, 393226, 0, 6, 393227, 0, 7, 458754, 0, 2, 458755, 0, 8, 458756, 0, 65544, 458757, 0, 65541, 524290, 0, 2, 524291, 0, 2, 524292, 0, 2, 524293, 0, 8, 524294, 0, 65545 )

[node name="Sprite" type="Sprite" parent="."]
position = Vector2( 994.191, 115.291 )
scale = Vector2( 0.289787, 0.323268 )
texture = ExtResource( 3 )

[node name="Area2D" parent="Sprite" instance=ExtResource( 4 )]
position = Vector2( -487.95, -286.821 )

[node name="Area2D" parent="." instance=ExtResource( 5 )]
