[gd_scene load_steps=6 format=2]

[ext_resource path="res://Scenes/Player.tscn" type="PackedScene" id=1]
[ext_resource path="res://Assets/Tileset/StoneWorld.tres" type="TileSet" id=2]
[ext_resource path="res://Assets/Finish.png" type="Texture" id=3]
[ext_resource path="res://Scenes/Area Trigger.tscn" type="PackedScene" id=4]
[ext_resource path="res://Assets/kenney_platformerpack/PNG/Backgrounds/background.jpg" type="Texture" id=5]

[node name="Level 2" type="Node2D"]

[node name="Player" parent="." instance=ExtResource( 1 )]
position = Vector2( 306.864, 1732.87 )

[node name="TileMap" type="TileMap" parent="."]
scale = Vector2( 0.5, 0.5 )
tile_set = ExtResource( 2 )
cell_size = Vector2( 128, 128 )
format = 1
tile_data = PoolIntArray( 1114121, 0, 65541, 1114122, 0, 0, 1114123, 0, 0, 1114124, 0, 0, 1114127, 0, 0, 1114128, 0, 0, 1114129, 0, 0, 1114132, 0, 0, 1114133, 0, 0, 1114134, 0, 0, 1114135, 0, 0, 1114136, 0, 0, 1179656, 0, 65541, 1179657, 0, 8, 1179658, 0, 1, 1179659, 0, 1, 1179660, 0, 1, 1179663, 0, 1, 1179664, 0, 1, 1179665, 0, 1, 1179668, 0, 1, 1179669, 0, 1, 1179670, 0, 1, 1179671, 0, 1, 1179672, 0, 1, 1245191, 0, 65541, 1245192, 0, 8, 1245193, 0, 1, 1245194, 0, 1, 1245195, 0, 1, 1245196, 0, 1, 1245199, 0, 1, 1245200, 0, 1, 1245201, 0, 1, 1245204, 0, 1, 1245205, 0, 1, 1245206, 0, 1, 1245207, 0, 1, 1245208, 0, 1, 1310726, 0, 65541, 1310727, 0, 8, 1376261, 0, 65541, 1376262, 0, 8, 1507330, 0, 0, 1507331, 0, 65540, 1572868, 0, 65536, 1572873, 0, 65536, 1572874, 0, 65536, 1572879, 0, 65536, 1572880, 0, 65536, 1572883, 0, 65536, 1572884, 0, 65536, 1572887, 0, 65536, 1572888, 0, 65540, 1638405, 0, 65536, 1703962, 0, 65541, 1703963, 0, 65543, 1769491, 0, 65541, 1769492, 0, 65544, 1769493, 0, 65543, 1769494, 0, 65543, 1769495, 0, 65543, 1769496, 0, 65543, 1769497, 0, 65543, 1769498, 0, 1, 1769499, 0, 1, 1835012, 0, 0, 1835013, 0, 0, 1835014, 0, 0, 1835015, 0, 0, 1835016, 0, 0, 1835020, 0, 0, 1835021, 0, 0, 1835022, 0, 0, 1835023, 0, 0, 1835024, 0, 0, 1835025, 0, 0, 1835026, 0, 1, 1835027, 0, 1, 1835028, 0, 1, 1835029, 0, 1, 1835030, 0, 1, 1835031, 0, 1, 1835032, 0, 1, 1835033, 0, 1, 1835034, 0, 1, 1835035, 0, 1 )

[node name="Sprite" type="Sprite" parent="."]
position = Vector2( 1489.02, 845.752 )
texture = ExtResource( 3 )

[node name="Area Trigger" parent="Sprite" instance=ExtResource( 4 )]
scale = Vector2( 0.64, 0.94 )
sceneName = "Win Screen"

[node name="Area Trigger" parent="." instance=ExtResource( 4 )]
position = Vector2( 928.676, 2023.2 )
scale = Vector2( 8.66, 0.2 )
sceneName = "Level 2"

[node name="TextureRect" type="TextureRect" parent="."]
show_behind_parent = true
margin_left = -721.0
margin_right = 2661.0
margin_bottom = 2167.0
texture = ExtResource( 5 )
expand = true
__meta__ = {
"_edit_use_anchors_": false
}
