[gd_scene load_steps=4 format=2]

[ext_resource path="res://Assets/kenney_platformercharacters/PNG/Female/Poses/female_idle.png" type="Texture" id=1]
[ext_resource path="res://Player.gd" type="Script" id=2]

[sub_resource type="RectangleShape2D" id=1]
extents = Vector2( 36.742, 45.8528 )

[node name="Player" type="KinematicBody2D"]
script = ExtResource( 2 )
__meta__ = {
"_edit_horizontal_guides_": [  ]
}

[node name="Sprite" type="Sprite" parent="."]
position = Vector2( 87.078, 110.444 )
scale = Vector2( 1.09023, 0.821938 )
texture = ExtResource( 1 )

[node name="CollisionShape2D" type="CollisionShape2D" parent="."]
position = Vector2( 87.6319, 111.681 )
shape = SubResource( 1 )
